<form method="post" class="woocommerce-checkout" action="http://localhost/dokan/wc-api/BF_Gateway_Stripe/">
      <div id="stripe-payment-data" 
            data-panel-label="" 
            data-description="" 
            data-email="ahsiongcha@live.com" 
            data-verify-zip="false" 
            data-billing-address="false" 
            data-shipping-address="false" 
            data-amount="8000" 
            data-name="" 
            data-currency="aud" 
            data-image="" 
            data-locale="en" 
            data-three-d-secure="true" 
            data-allow-remember-me="true">
                  <input type="hidden" name="order_id" value="602">
                  <input type="hidden" name="stripe_checkout_order" value="yes">
                  <input type="hidden" id="stripe_checkout_process_nonce" name="stripe_checkout_process_nonce" value="af8ab74112">
                  <input type="hidden" name="_wp_http_referer" value="/dokan/checkout/order-pay/602/?key=wc_order_5c7617b7ef7ef">
                  <button type="submit" class="wc-stripe-checkout-button">Place Order</button>
      </div>
</form>

http://localhost/dokan/checkout/order-pay/606/?key=wc_order_5c7636e1032ca

class-wc-gateway-stripe.php - 432
class-wc-stripe-payment-request.php - 465
class-wc-checkout.php - 283
database - postmeta ID - 617, 565